Nga tu Bay Hien,10.792357,106.653164
Nga tu Ga,10.861499,106.680104
Nga tu Li Thuong Kiet giao To Hien Thanh,10.770463,106.658234
Vong xoay nga tu An Suong,10.842389,106.614979
Nga ba Au Co giao Truong Chinh,10.801669,106.636767
Bung binh Cay Go,10.754501,106.643247
Vong xoay Phu Lam,10.753959,106.634185
Vong xoay Hang Xanh,10.801452,106.711356
Nga tu Binh Trieu,10.825914,106.714500
Nga ba 621,10.873155,106.808529
Cau Sai Gon,10.798301,106.724741
Cau Phu My,10.745204,106.744760
Nga tu thu Duc,10.849124,106.774100